module pirs/client-lb

go 1.16

require (
	github.com/golang/protobuf v1.5.2
	google.golang.org/genproto v0.0.0-20210708141623-e76da96a951f
	google.golang.org/grpc v1.39.0
	google.golang.org/protobuf v1.27.1
)
