module pirs/error-treatment

go 1.16

require (
	github.com/golang/protobuf v1.5.2 // indirect
	github.com/grpc-ecosystem/go-grpc-middleware v1.3.0 // indirect
	google.golang.org/grpc v1.38.0 // indirect
	google.golang.org/protobuf v1.26.0 // indirect
)
